{
  "version": 1,
  "clkConfig": {
    "l": 256,
    "k": 3,
    "hash": {
      "type": "doubleHash"
    },
    "kdf": {
      "type": "HKDF"
    }
  },
  "features": [
    {
      "identifier": "HO",
      "format": {
        "type": "string",
        "maxLength": 128,
        "encoding": "utf-8"
      },
      "hashing": {
        "ngram": 2
      }
    },
    {
      "identifier": "DEM",
      "format": {
        "type": "string",
        "maxLength": 128,
        "encoding": "utf-8"
      },
      "hashing": {
        "ngram": 2
      }
    },
    {
      "identifier": "TEN",
      "format": {
        "type": "string",
        "maxLength": 128,
        "encoding": "utf-8"
      },
      "hashing": {
        "ngram": 2
      }
    },
    {
      "identifier": "GIOI_TINH",
      "format": {
        "type": "string",
        "maxLength": 128,
        "encoding": "utf-8"
      },
      "hashing": {
        "ngram": 0
      }
    },
    {
      "identifier": "NGAY",
      "format": {
        "type": "string",
        "maxLength": 128,
        "encoding": "utf-8"
      },
      "hashing": {
        "ngram": 0,
        "positional": true
      }
    },
    {
      "identifier": "THANG",
      "format": {
       "type": "string",
        "maxLength": 128,
        "encoding": "utf-8"
      },
      "hashing": {
        "ngram": 0,
        "positional": true
      }
    },
    {
      "identifier": "NAM",
      "format": {
        "type": "string",
        "maxLength": 128,
        "encoding": "utf-8"
      },
      "hashing": {
        "ngram": 0,
        "positional": true
      }
    },
    {
      "identifier": "MA_TINH_KS",
      "format": {
        "type": "string",
        "maxLength": 128,
        "encoding": "utf-8"
      },
      "hashing": {
        "ngram": 1,
        "positional": true
      }
    },
    {
      "identifier": "MA_HUYEN_KS",
      "format": {
        "type": "string",
        "maxLength": 128,
        "encoding": "utf-8"
      },
      "hashing": {
        "ngram": 1,
        "positional": true
      }
    },
    {
      "identifier": "MA_XA_KS",
      "format": {
        "type": "string",
        "maxLength": 128,
        "encoding": "utf-8"
      },
      "hashing": {
        "ngram": 1,
        "positional": true
      }
    },
    {
      "identifier": "SO_CMTND",
      "format": {
        "type": "string",
        "maxLength": 128,
        "encoding": "utf-8"
      },
      "hashing": {
        "ngram": 1,
        "positional": true
      }
    }
  ]
}